30,0
30,3.6
30,7.2
30,10.8
30,14.4
30,18
30,21.6
30,25.2
30,28.8
30,32.4
30,36
30,39.6
30,43.2
30,46.8
30,50.4
30,54
30,57.6
30,61.2
30,64.8
30,68.4
30,72
30,75.6
30,79.2
30,82.8
30,86.4
30,90
30,93.6
30,97.2
30,100.8
30,104.4
30,108
30,111.6
30,115.2
30,118.8
30,122.4
30,126
30,129.6
30,133.2
30,136.8
30,140.4
30,144
30,147.6
30,151.2
30,154.8
30,158.4
30,162
30,165.6
30,169.2
30,172.8
30,176.4
30,180
30,183.6
30,187.2
30,190.8
30,194.4
30,198
30,201.6
30,205.2
30,208.8
30,212.4
30,216
30,219.6
30,223.2
30,226.8
30,230.4
30,234
30,237.6
30,241.2
30,244.8
30,248.4
30,252
30,255.6
30,259.2
30,262.8
30,266.4
30,270
30,273.6
30,277.2
30,280.8
30,284.4
30,288
30,291.6
30,295.2
30,298.8
30,302.4
30,306
30,309.6
30,313.2
30,316.8
30,320.4
30,324
30,327.6
30,331.2
30,334.8
30,338.4
30,342
30,345.6
30,349.2
30,352.8
30,356.4
30,360
30,363.6
30,367.2
30,370.8
30,374.4
30,378
30,381.6
30,385.2
30,388.8
30,392.4
30,396
30,399.6
30,403.2
30,406.8
30,410.4
30,414
30,417.6
30,421.2
30,424.8
30,428.4
30,432
30,435.6
30,439.2
30,442.8
30,446.4
30,450
30,453.6
30,457.2
30,460.8
30,464.4
30,468
30,471.6
30,475.2
30,478.8
30,482.4
30,486
30,489.6
30,493.2
30,496.8
30,500.4
30,504
30,507.6
30,511.2
30,514.8
30,518.4
30,522
30,525.6
30,529.2
30,532.8
30,536.4
30,540
30,543.6
30,547.2
30,550.8
30,554.4
30,558
30,561.6
30,565.2
30,568.8
30,572.4
30,576
30,579.6
30,583.2
30,586.8
30,590.4
30,594
30,597.6
30,601.2
30,604.8
30,608.4
30,612
30,615.6
30,619.2
30,622.8
30,626.4
30,630
30,633.6
30,637.2
30,640.8
30,644.4
30,648
30,651.6
30,655.2
30,658.8
30,662.4
30,666
30,669.6
30,673.2
30,676.8
30,680.4
30,684
30,687.6
30,691.2
30,694.8
30,698.4
30,702
30,705.6
30,709.2
30,712.8
30,716.4
30,720
0,720.09
0,720.09
0,720.09
0,720.09
0,720.09
0,720.09
0,720.09
0,720.09
0,720.09
0,720.09
0,720.09
0,720.09
0,720.09
0,720.09
0,720.09
0,720.09
0,720.09
0,720.09
0,720.09
0,720.09
0,720.09
0,720.09
0,720.09
0,720.09
0,720.09
0,720.09
0,720.09
0,720.09
0,720.09
0,720.09
0,720.09
0,720.09
0,720.09
0,720.09
0,720.09
0,720.09
0,720.09
0,720.09
0,720.09
0,720.09
0,720.09
0,720.09
0,720.09
0,720.09
0,720.09
0,720.09
0,720.09
0,720.09
0,720.09
0,720.09
0,720.09
0,720.09
0,720.09
0,720.09
0,720.09
0,720.09
0,720.09
0,720.09
0,720.09
0,720.09
0,720.09
0,720.09
0,720.09
0,720.09
0,720.09
0,720.09
0,720.09
0,720.09
0,720.09
0,720.09
0,720.09
0,720.09
0,720.09
0,720.09
0,720.09
0,720.09
0,720.09
0,720.09
0,720.09
0,720.09
0,720.09
0,720.09
0,720.09
0,720.09
0,720.09
0,720.09
0,720.09
0,720.09
0,720.09
0,720.09
0,720.09
0,720.09
0,720.09
0,720.09
0,720.09
0,720.09
0,720.09
0,720.09
0,720.09
0,720.09
0,720.09
0,720.09
0,720.09
0,720.09
0,720.09
0,720.09
0,720.09
0,720.09
0,720.09
0,720.09
0,720.09
0,720.09
0,720.09
0,720.09
0,720.09
0,720.09
0,720.09
0,720.09
0,720.09
0,720.09
0,720.09
0,720.09
0,720.09
0,720.09
0,720.09
0,720.09
0,720.09
0,720.09
0,720.09
0,720.09
0,720.09
0,720.09
0,720.09
0,720.09
0,720.09
0,720.09
0,720.09
0,720.09
0,720.09
0,720.09
0,720.09
0,720.09
0,720.09
0,720.09
0,720.09
0,720.09
0,720.09
0,720.09
0,720.09
0,720.09
-60,713.07
-60,705.87
-60,698.67
-60,691.47
-60,684.27
-60,677.07
-60,669.87
-60,662.67
-60,655.47
-60,648.27
-60,641.07
-60,633.87
-60,626.67
-60,619.47
-60,612.27
-60,605.07
-60,597.87
-60,590.67
-60,583.47
-60,576.27
-60,569.07
-60,561.87
-60,554.67
-60,547.47
-60,540.27
-60,533.07
-60,525.87
-60,518.67
-60,511.47
-60,504.27
-60,497.07
-60,489.87
-60,482.67
-60,475.47
-60,468.27
-60,461.07
-60,453.87
-60,446.67
-60,439.47
-60,432.27
-60,425.07
-60,417.87
-60,410.67
-60,403.47
-60,396.27
-60,389.07
-60,381.87
-60,374.67
-60,367.47
-60,360.27
0,360.09
0,360.09
0,360.09
0,360.09
0,360.09
0,360.09
0,360.09
0,360.09
0,360.09
0,360.09
0,360.09
0,360.09
0,360.09
0,360.09
0,360.09
0,360.09
0,360.09
0,360.09
0,360.09
0,360.09
0,360.09
0,360.09
0,360.09
0,360.09
0,360.09
0,360.09
0,360.09
0,360.09
0,360.09
0,360.09
0,360.09
0,360.09
0,360.09
0,360.09
0,360.09
0,360.09
0,360.09
0,360.09
0,360.09
0,360.09
0,360.09
0,360.09
0,360.09
0,360.09
0,360.09
0,360.09
0,360.09
0,360.09
0,360.09
0,360.09
0,360.09
0,360.09
0,360.09
0,360.09
0,360.09
0,360.09
0,360.09
0,360.09
0,360.09
0,360.09
0,360.09
0,360.09
0,360.09
0,360.09
0,360.09
0,360.09
0,360.09
0,360.09
0,360.09
0,360.09
0,360.09
0,360.09
0,360.09
0,360.09
0,360.09
0,360.09
0,360.09
0,360.09
0,360.09
0,360.09
0,360.09
0,360.09
0,360.09
0,360.09
0,360.09
0,360.09
0,360.09
0,360.09
0,360.09
0,360.09
0,360.09
0,360.09
0,360.09
0,360.09
0,360.09
0,360.09
0,360.09
0,360.09
0,360.09
0,360.09
0,360.09
0,360.09
0,360.09
0,360.09
0,360.09
0,360.09
0,360.09
0,360.09
0,360.09
0,360.09
0,360.09
0,360.09
0,360.09
0,360.09
0,360.09
0,360.09
0,360.09
0,360.09
0,360.09
0,360.09
0,360.09
0,360.09
0,360.09
0,360.09
0,360.09
0,360.09
0,360.09
0,360.09
0,360.09
0,360.09
0,360.09
0,360.09
0,360.09
0,360.09
0,360.09
0,360.09
0,360.09
0,360.09
0,360.09
0,360.09
0,360.09
0,360.09
0,360.09
0,360.09
0,360.09
0,360.09
0,360.09
0,360.09
0,360.09
0,360.09
0.6,360.13
1.2,360.23
1.8,360.41
2.4,360.67
3,360.99
3.6,361.39
4.2,361.85
4.8,362.39
5.4,363.01
6,363.69
6.6,364.45
7.2,365.27
7.8,366.17
8.4,367.15
9,368.19
9.6,369.31
10.2,370.49
10.8,371.75
11.4,373.09
12,374.49
12.6,375.97
13.2,377.51
13.8,379.13
14.4,380.83
15,382.59
15.6,384.43
16.2,386.33
16.8,388.31
17.4,390.37
18,392.49
18.6,394.69
19.2,396.95
19.8,399.29
20.4,401.71
21,404.19
21.6,406.75
22.2,409.37
22.8,412.07
23.4,414.85
24,417.69
24.6,420.61
25.2,423.59
25.8,426.65
26.4,429.79
27,432.99
27.6,436.27
28.2,439.61
28.8,443.03
29.4,446.53
30,450.09
29.4,453.65
28.8,457.15
28.2,460.57
27.6,463.91
27,467.19
26.4,470.39
25.8,473.53
25.2,476.59
24.6,479.57
24,482.49
23.4,485.33
22.8,488.11
22.2,490.81
21.6,493.43
21,495.99
20.4,498.47
19.8,500.89
19.2,503.23
18.6,505.49
18,507.69
17.4,509.81
16.8,511.87
16.2,513.85
15.6,515.75
15,517.59
14.4,519.35
13.8,521.05
13.2,522.67
12.6,524.21
12,525.69
11.4,527.09
10.8,528.43
10.2,529.69
9.6,530.87
9,531.99
8.4,533.03
7.8,534.01
7.2,534.91
6.6,535.73
6,536.49
5.4,537.17
4.8,537.79
4.2,538.33
3.6,538.79
3,539.19
2.4,539.51
1.8,539.77
1.2,539.95
0.6,540.05
0,540.09
0,540.09
0,540.09
0,540.09
0,540.09
0,540.09
0,540.09
0,540.09
0,540.09
0,540.09
0,540.09
0,540.09
0,540.09
0,540.09
0,540.09
0,540.09
0,540.09
0,540.09
0,540.09
0,540.09
0,540.09
0,540.09
0,540.09
0,540.09
0,540.09
0,540.09
0,540.09
0,540.09
0,540.09
0,540.09
0,540.09
0,540.09
0,540.09
0,540.09
0,540.09
0,540.09
0,540.09
0,540.09
0,540.09
0,540.09
0,540.09
0,540.09
0,540.09
0,540.09
0,540.09
0,540.09
0,540.09
0,540.09
0,540.09
0,540.09
0,540.09
0,540.09
0,540.09
0,540.09
0,540.09
0,540.09
0,540.09
0,540.09
0,540.09
0,540.09
0,540.09
0,540.09
0,540.09
0,540.09
0,540.09
0,540.09
0,540.09
0,540.09
0,540.09
0,540.09
0,540.09
0,540.09
0,540.09
0,540.09
0,540.09
0,540.09
0,540.09
0,540.09
0,540.09
0,540.09
0,540.09
0,540.09
0,540.09
0,540.09
0,540.09
0,540.09
0,540.09
0,540.09
0,540.09
0,540.09
0,540.09
0,540.09
0,540.09
0,540.09
0,540.09
0,540.09
0,540.09
0,540.09
0,540.09
0,540.09
0,540.09
